module gitlab.com/home_life_management/common_lib

go 1.17

require (
	github.com/gocarina/gocsv v0.0.0-20220304222734-caabc5f00d30
	github.com/jackc/pgx/v4 v4.15.0
	go.uber.org/zap v1.21.0
)

require (
	github.com/jackc/chunkreader/v2 v2.0.1 // indirect
	github.com/jackc/pgconn v1.11.0 // indirect
	github.com/jackc/pgio v1.0.0 // indirect
	github.com/jackc/pgpassfile v1.0.0 // indirect
	github.com/jackc/pgproto3/v2 v2.2.0 // indirect
	github.com/jackc/pgservicefile v0.0.0-20200714003250-2b9c44734f2b // indirect
	github.com/jackc/pgtype v1.10.0 // indirect
	github.com/jackc/puddle v1.2.1 // indirect
	go.uber.org/atomic v1.9.0 // indirect
	go.uber.org/multierr v1.8.0 // indirect
	golang.org/x/crypto v0.0.0-20220214200702-86341886e292 // indirect
	golang.org/x/text v0.3.7 // indirect
)
